{
  "vehicles": [
    "10ram",
	"16CC",
	"16m5",
	"19S650",
	"63lb",
	"1500dj",
	"2015POLSTANG",
	"2108",
	"a6tfsi",
	"agerars",
	"amggtr",
	"BELAIR57",
	"BEN17",
	"bmci",
	"bmwe38",
	"BMWS",
	"c63w205",
	"CLS63S",
	"CORTINA",
	"cotrailer",
	"def90",
	"DEMON",
	"demonhawk",
	"denalihd",
	"dodgesamu",
	"e15082",
	"eleanor",
	"EVO10",
	"F131",
	"g65amg",
	"ghispo2",
	"gle63s",
	"hdwrecker",
	"HVROD",
	"impala72",
	"lamboavj",
	"LUMMA750",
	"m3e30",
	"m3e46",
	"M4SP",
	"mercxclass",
	"MERS63C",
	"mqgts",
	"nh2r",
	"nissantitan17",
	"octavia",
	"P1",
	"R1",
	"R50",
	"rmodgt63",
	"rmodm4gts",
	"rmodmi8",
	"rmodveneno",
	"rmodx6",
	"rrphantom",
	"rrst",
	"rs5r",
	"RS318",
	"rt70",
	"RUBI3D",
	"s4avant",
	"s600w220",
	"shelbygt500",
	"skoda100",
	"SKYLINE",
	"sovrs",
	"SQ72016",
	"SRT8",
	"stelvio",
	"subwrx",
	"supra2",
	"2013rs7",
	"tmodel",
	"URBAN",
	"W140",
	"xkgt",
	"yz450f",
	"z2879",
	"volvoxc90",
	"s8d2",
	"impala59c",
	"rmodlp770",
	"charge4",
	"srt2018",
	"dawn",
	"mustang19",
	"jp12",
	"rmodmustang",
	"mbhome",
	"lwgtr",
	"CLS53",
	"mi8",
	"gsxb",
	"navigator",
	"911rwb",
	"gm5303",
	"b12langsh",
	"IS200T",
	"g63",
	"m3kean",
	"catalina",
	"k5blazer",
	"polgs350",
	"wraith",
	"patrold",
	"17m760i",
	"audi100sc1",
	"expedition",
	"750li",
	"granada81",
	"fe86",
	"flatbedm2",
	"m2f22",
	"gt17",
	"pturismo",
	"brabus",
	"xk120",
	"raid",
	"gmcs",
	"e63amg",
	"camaro_ss",
	"czl1",
	"f100",
	"s60pole",
	"370z",
	"mers63c",
	"356ac",
	"fg4m",
	"mb300sl",
	"c10custom",
	"c7",
	"brabus500",
	"ph8m",
	"m5e60",
	"2019zr1",
	"pounder3",
	"exor",
	"fj40",
	"mx7",
	"kbfiesta",
	"kbmustang",
	"ramsrt10",
	"gls63",
	"raptor2017",
	"pcs18",
	"cj7",
	"rs6pd600",
	"mudsl"
  ],
  "peds": [
    "addonpedname1",
    "addonpedname2"
  ],
  "weapons": [
    "addonweaponname1",
    "addonweaponname2"
  ]
}
